ant:1.2
antisamy-markup-formatter:1.1
credentials:1.28
cvs:2.11
external-monitor-job:1.4
ghprb:1.31.4
git:2.4.4
git-client:1.19.6
github:1.19.0
github-api:1.75
icon-shim:2.0.3
javadoc:1.1
jquery:1.11.2-0
junit:1.11
ldap:1.11
leastload:1.0.3
mailer:1.16
matrix-auth:1.1
matrix-project:1.6
maven-plugin:2.7.1
next-build-number:1.3
pam-auth:1.1
plain-credentials:1.1
postbuild-task:1.8
rebuild:1.25
scm-api:1.0
scoring-load-balancer:1.0.1
script-security:1.13
ssh:2.4
ssh-agent:1.8
ssh-credentials:1.11
ssh-slaves:1.9
subversion:1.54
token-macro:1.12.1
translation:1.10
workflow-step-api:1.11